[29/Sep/2021:10:20:48+0100] 192.168.21.34 /healthz GET Mozilla/5.0 (Macintosh; Intel Mac OS X 10_15_7)
[29/Sep/2021:10:20:48+0100] 192.168.21.34 /healthz GET Mozilla/5.0 (Macintosh; Intel Mac OS X 10_15_7)
[29/Sep/2021:10:20:48+0100] 192.168.21.34 /healthz GET Mozilla/5.0 (Macintosh; Intel Mac OS X 10_15_7)
[29/Sep/2021:10:20:48+0100] 192.168.21.34 /healthz GET Mozilla/5.0 (Macintosh; Intel Mac OS X 10_15_7)
[29/Sep/2021:10:20:48+0100] 192.168.21.34 /healthz GET Mozilla/5.0 (Macintosh; Intel Mac OS X 10_15_7)
[29/Sep/2021:10:20:48+0100] 187.236.230.110 /healthz GET Mozilla/5.0 (Macintosh; Intel Mac OS X 10_15_7)
[29/Sep/2021:10:20:48+0100] 104.194.250.156 /healthz GET Mozilla/5.0 (Macintosh; Intel Mac OS X 10_15_7)
[29/Sep/2021:10:20:48+0100] 104.194.250.156 /healthz GET Mozilla/5.0 (Macintosh; Intel Mac OS X 10_15_7)
[29/Sep/2021:10:20:48+0100] 104.194.250.156 /healthz GET Mozilla/5.0 (Macintosh; Intel Mac OS X 10_15_7)
[29/Sep/2021:10:20:48+0100] 139.138.227.252 /healthz GET Mozilla/5.0 (Macintosh; Intel Mac OS X 10_15_7)
[29/Sep/2021:10:20:48+0100] 139.138.227.252 /healthz GET Mozilla/5.0 (Macintosh; Intel Mac OS X 10_15_7)
[29/Sep/2021:10:20:48+0100] 139.138.227.252 /healthz GET Mozilla/5.0 (Macintosh; Intel Mac OS X 10_15_7)
[29/Sep/2021:10:20:48+0100] 139.138.227.252 /healthz GET Mozilla/5.0 (Macintosh; Intel Mac OS X 10_15_7)
[29/Sep/2021:10:20:48+0100] 139.138.227.252 /healthz GET Mozilla/5.0 (Macintosh; Intel Mac OS X 10_15_7)
[29/Sep/2021:10:20:48+0100] 139.138.227.252 /healthz GET Mozilla/5.0 (Macintosh; Intel Mac OS X 10_15_7)
[29/Sep/2021:10:20:48+0100] 139.138.227.252 /healthz GET Mozilla/5.0 (Macintosh; Intel Mac OS X 10_15_7)
[29/Sep/2021:10:20:48+0100] 139.138.227.252 /healthz GET Mozilla/5.0 (Macintosh; Intel Mac OS X 10_15_7)
[29/Sep/2021:10:20:48+0100] 139.138.227.252 /healthz GET Mozilla/5.0 (Macintosh; Intel Mac OS X 10_15_7)
[29/Sep/2021:10:20:48+0100] 139.138.227.252 /healthz GET Mozilla/5.0 (Macintosh; Intel Mac OS X 10_15_7)
[29/Sep/2021:10:20:48+0100] 171.87.2.59 /healthz GET Mozilla/5.0 (Macintosh; Intel Mac OS X 10_15_7)
[29/Sep/2021:10:20:48+0100] 171.87.2.59 /healthz GET Mozilla/5.0 (Macintosh; Intel Mac OS X 10_15_7)
[29/Sep/2021:10:20:48+0100] 171.87.2.59 /healthz GET Mozilla/5.0 (Macintosh; Intel Mac OS X 10_15_7)
[29/Sep/2021:10:20:48+0100] 198.192.27.189 /healthz GET Mozilla/5.0 (Macintosh; Intel Mac OS X 10_15_7)
[29/Sep/2021:10:20:48+0100] 198.192.27.189 /healthz GET Mozilla/5.0 (Macintosh; Intel Mac OS X 10_15_7)
[29/Sep/2021:10:20:48+0100] 198.192.27.189 /healthz GET Mozilla/5.0 (Macintosh; Intel Mac OS X 10_15_7)
[29/Sep/2021:10:20:48+0100] 198.192.27.189 /healthz GET Mozilla/5.0 (Macintosh; Intel Mac OS X 10_15_7)
[29/Sep/2021:10:20:48+0100] 198.192.27.189 /healthz GET Mozilla/5.0 (Macintosh; Intel Mac OS X 10_15_7)
[29/Sep/2021:10:20:48+0100] 198.192.27.189 /healthz GET Mozilla/5.0 (Macintosh; Intel Mac OS X 10_15_7)
[29/Sep/2021:10:20:48+0100] 199.25.214.114 /healthz GET Mozilla/5.0 (Macintosh; Intel Mac OS X 10_15_7)
[29/Sep/2021:10:20:48+0100] 199.25.214.114 /healthz GET Mozilla/5.0 (Macintosh; Intel Mac OS X 10_15_7)
[29/Sep/2021:10:20:48+0100] 112.193.22.165 /healthz GET Mozilla/5.0 (Macintosh; Intel Mac OS X 10_15_7)
[29/Sep/2021:10:20:48+0100] 112.193.22.165 /healthz GET Mozilla/5.0 (Macintosh; Intel Mac OS X 10_15_7)
[29/Sep/2021:10:20:48+0100] 127.82.130.93 /healthz GET Mozilla/5.0 (Macintosh; Intel Mac OS X 10_15_7)
[29/Sep/2021:10:20:48+0100] 127.82.130.93 /healthz GET Mozilla/5.0 (Macintosh; Intel Mac OS X 10_15_7)
[29/Sep/2021:10:20:48+0100] 127.82.130.93 /healthz GET Mozilla/5.0 (Macintosh; Intel Mac OS X 10_15_7)
[29/Sep/2021:10:20:48+0100] 127.82.130.93 /healthz GET Mozilla/5.0 (Macintosh; Intel Mac OS X 10_15_7)
[29/Sep/2021:10:20:48+0100] 127.82.130.93 /healthz GET Mozilla/5.0 (Macintosh; Intel Mac OS X 10_15_7)
[29/Sep/2021:10:20:48+0100] 127.82.130.93 /healthz GET Mozilla/5.0 (Macintosh; Intel Mac OS X 10_15_7)
[29/Sep/2021:10:20:48+0100] 127.82.130.93 /healthz GET Mozilla/5.0 (Macintosh; Intel Mac OS X 10_15_7)
[29/Sep/2021:10:20:48+0100] 127.82.130.93 /healthz GET Mozilla/5.0 (Macintosh; Intel Mac OS X 10_15_7)
[29/Sep/2021:10:20:48+0100] 127.82.130.93 /healthz GET Mozilla/5.0 (Macintosh; Intel Mac OS X 10_15_7)
[29/Sep/2021:10:20:48+0100] 127.82.130.93 /healthz GET Mozilla/5.0 (Macintosh; Intel Mac OS X 10_15_7)
[29/Sep/2021:10:20:48+0100] 127.82.130.93 /healthz GET Mozilla/5.0 (Macintosh; Intel Mac OS X 10_15_7)
[29/Sep/2021:10:20:48+0100] 127.82.130.93 /healthz GET Mozilla/5.0 (Macintosh; Intel Mac OS X 10_15_7)
[29/Sep/2021:10:20:48+0100] 127.82.130.93 /healthz GET Mozilla/5.0 (Macintosh; Intel Mac OS X 10_15_7)
[29/Sep/2021:10:20:48+0100] 127.82.130.93 /healthz GET Mozilla/5.0 (Macintosh; Intel Mac OS X 10_15_7)
[29/Sep/2021:10:20:48+0100] 127.82.130.93 /healthz GET Mozilla/5.0 (Macintosh; Intel Mac OS X 10_15_7)
[29/Sep/2021:10:20:48+0100] 127.82.130.93 /healthz GET Mozilla/5.0 (Macintosh; Intel Mac OS X 10_15_7)
[29/Sep/2021:10:20:48+0100] 127.82.130.93 /healthz GET Mozilla/5.0 (Macintosh; Intel Mac OS X 10_15_7)
[29/Sep/2021:10:20:48+0100] 127.82.130.93 /healthz GET Mozilla/5.0 (Macintosh; Intel Mac OS X 10_15_7)
